﻿g           c c                                                             b    g
g         cg                                          b                  b       g
g        cgg          g                  c   c   c  b c                          g
g       cggg          g     c    c    c  g   g   ggg        g   c   g            e
g   p   gggg  c c c cgg    ggg  ggg  ggg ggggg    g  ggg  ggggggggggggg   c m gggg
gggggggggggggggggggggggddddgggddgggddgggdgdddgddddgddgggddgggggggggggggggggggggggg